;;;;;;;offerCode dans l'unrated;offre;353;353;353;353;353;3055;3055
;;;;;;;productCode dans l'unrated;produit ;RECYGO_SUBSCRIPTION;RECYGO_ONDEMAND;RECYGO_UNARCHIVE;RECYGO_ABO_BOX;ADDITIONAL_PICKUP;G2;G4
;;;;;;;serviceCode dans l'unrated;services;PICKUP;PICKUP;PICKUP;PICKUP;PICKUP;;
;;;;;;; itemCode dans l'unrated;item;;;;;;;
Unrated;;;;;;;;;;;;;;;
technic;;;;;;;;technic;;;;;;;
;timestamp;;;;;;;technic.timestamp;;;;;;;
;eventUUID;;;;;;;technic.eventUUID;x;x;x;x;x;x;x
event;;;;;;;;event;;;;;;;
;opCode;;;;;;;event.opCode;;;;;;;
;chargingPairingId;;;;;;;event.chargingPairingId;;;;;;;
contracting;;;;;;;;contracting;;;;;;;
;contractNumber;;;;;;;contracting.contractNumber;x;x;x;x;x;x;x
;custAccNumber;;;;;;;contracting.custAccNumber;;;;;;;
;invoiceSubAccount;;;;;;;contracting.invoiceSubAccount;;;;;;;
;subAccountDescription;;;;;;;contracting.subAccountDescription;;;;;;;
;stampingAllowId;;;;;;;contracting.stampingAllowId;;;;;;;
;custInvoiceTermId;;;;;;;contracting.custInvoiceTermId;;;;;;;
;billingAccount;;;;;;;contracting.billingAccount;;;;;;;
;criteria;;;;;;;contracting.criteria;;;;;;;
offer;;;;;;;;offer;;;;;;;
;offerCode;;;;;;;offer.offerCode;;;;;;;
;products;;;;;;;offer.products;;;;;;;
;;productCode;;;;;;offer.products[0].productCode;;;;;;;
;;services;;;;;;offer.products[0].services;;;;;;;
;;;serviceCode;;;;;offer.products[0].services[0].serviceCode;;;;;;;
;;;ontology;;;;;offer.products[0].services[0].ontology;;;;;;;
;;;criterion;;;;;offer.products[0].services[0].criteria;;;;;;;
;;;;criterionGeodataCode;pickup_flowRealType;;;offer.products[0].services[0].criteria[?(@.criterionGeodataCode=='mission_flowType')].criterionValueCode;;;;;;;
;;;;criterionGeodataCode;reasonCode1;;;offer.products[0].services[0].criteria[?(@.criterionGeodataCode=='reasonCode1')].criterionValueCode;;;;;;;
;;;;criterionGeodataCode;reasonCode2;;;offer.products[0].services[0].criteria[?(@.criterionGeodataCode=='reasonCode2')].criterionValueCode;;;;;;;
;;;;criterionGeodataCode;reasonCode3;;;offer.products[0].services[0].criteria[?(@.criterionGeodataCode=='reasonCode3')].criterionValueCode;;;;;;;
;;;;criterionGeodataCode;mission_numberOfAssignments;;;offer.products[0].services[0].criteria[?(@.criterionGeodataCode=='mission_numberOfAssignments')].criterionValueCode;;;;;;;
;;;;criterionGeodataCode;initialOrder_commercialServiceId ;;;offer.products[0].services[0].criteria[?(@.criterionGeodataCode=='initialOrder_commercialservicesId ')].criterionValueCode;;;;;;;
;;;;criterionGeodataCode;eventCode;;;offer.products[0].services[0].criteria[?(@.criterionGeodataCode=='eventCode')].criterionValueCode;;;;;;;
;;;;criterionGeodataCode;;;;offer.products[0].services[0].criteria[?(@.criterionGeodataCode=='envelope_formatCode')].criterionValueCode;;;;;;;
;;;;criterionGeodataCode;;;;offer.products[0].services[0].criteria[?(@.criterionGeodataCode=='preparationLevel')].criterionValueCode;;;;;;;
;;;;criterionGeodataCode;;;;offer.products[0].services[0].criteria[?(@.criterionGeodataCode=='declaredWeight')].criterionValueCode;;;;;;;
;;;;criterionGeodataCode;;;;offer.products[0].services[0].criteria[?(@.criterionGeodataCode=='declaredWeight')].criterionValueCode;;;;;;;
;;;;criterionGeodataCode;;;;offer.products[0].services[0].criteria[?(@.criterionGeodataCode=='weightCategory')].criterionValueCode;;;;;;;
;;;;criterionGeodataCode;;;;offer.products[0].services[0].criteria[?(@.criterionGeodataCode=='trackingFlag')].criterionValueCode;;;;;;;
;;;;criterionGeodataCode;;;;offer.products[0].services[0].criteria[?(@.criterionGeodataCode=='signedFlag')].criterionValueCode;;;;;;;
;;;;criterionGeodataCode;;;;offer.products[0].services[0].criteria[?(@.criterionGeodataCode=='itemStatus')].criterionValueCode;;;;;;;
;;;;criterionGroup;;;;offer.products[0].services[0].criteria[?(@.criterionGeodataCode=='itemQuantity')].criterionValueCode;;;;;;;
;;;;items;;;;offer.products[0].services[0].criteria,criterionGroup;;;;;;;
;;;;;itemCode;BAK;;offer.products[0].services[0].items[0];;;;;;;
;;;;;criteria;;;offer.products[0].services[0].items[0].itemCode;;;;;;;
;;;;;;criterionGeodataCode;pickup_containerQuantity;offer.products[0].services[0].items[0].criteria[0];;;;;;;
;;;;;;criterionGeodataCode;pickup_containerQuantity;offer.products[0].services[0].items[0].criteria[0][?(@.criterionGeodataCode=='pickup_containerRealQuantity')].criterionValueCode;;;;;;;
;;;;;;criterionGeodataCode;pickup_containerRealQuantity;offer.products[0].services[0].items[1].itemCode;;;;;;;
;;;;;itemCode;protectedCE30;;offer.products[0].services[0].items[1].criteria[0];;;;;;;
;;;;;criteria;;;offer.products[0].services[0].items[1].criteria[0][?(@.criterionGeodataCode=='pickup_containerRealQuantity')].criterionValueCode;;;;;;;
;;;;;;criterionGeodataCode;pickup_containerQuantity;offer.products[0].services[0].items[2].itemCode;;;;;;;
;;;;;;criterionGeodataCode;pickup_containerRealQuantity;offer.products[0].services[0].items[2].criteria[0];;;;;;;
;;;;;itemCode;copernicKadnabox;;offer.products[0].services[0].items[2].criteria[0][?(@.criterionGeodataCode=='pickup_containerRealQuantity')].criterionValueCode;;;;;;;
;;;;;criteria;;;offer.products[0].services[0].items[3].itemCode;;;;;;;
;;;;;;criterionGeodataCode;pickup_containerQuantity;offer.products[0].services[0].items[3].criteria[0];;;;;;;
;;;;;;criterionGeodataCode;pickup_containerRealQuantity;offer.products[0].services[0].items[3].criteria[0][?(@.criterionGeodataCode=='pickup_containerRealQuantity')].criterionValueCode;;;;;;;
;;;;;itemCode;copernicCardboard;;offer.products[0].services[0].items[4].itemCode;;;;;;;
;;;;;criteria;;;offer.products[0].services[0].items[4].criteria[0];;;;;;;
;;;;;;criterionGeodataCode;pickup_containerQuantity;offer.products[0].services[0].items[4].criteria[0][?(@.criterionGeodataCode=='pickup_containerRealQuantity')].criterionValueCode;;;;;;;
;;;;;;criterionGeodataCode;pickup_containerRealQuantity;offer.products[0].services[0].items[5].itemCode;;;;;;;
;;;;;itemCode;copernicBeverage;;offer.products[0].services[0].items[5].criteria[0];;;;;;;
;;;;;criteria;;;offer.products[0].services[0].items[5].criteria[0][?(@.criterionGeodataCode=='pickup_containerRealQuantity')].criterionValueCode;;;;;;;
;;;;;;criterionGeodataCode;pickup_containerQuantity;offer.products[0].services[0].items.criterionGroup;;;;;;;
;;;;;;criterionGeodataCode;pickup_containerRealQuantity;offer.products;;;;;;;
;;;;;itemCode;copernicCup;;offer.products[1].productCode;;;;;;;
;;;;;criteria;;;offer.products[1].services;;;;;;;
;;;;;;criterionGeodataCode;pickup_containerQuantity;offer.products[1].services[0].serviceCode;;;;;;;
;;;;;;criterionGeodataCode;pickup_containerRealQuantity;offer.products[1].services[0].ontology;;;;;;;
;;;;;itemCode;copernicCartridge;;offer.products[1].services[0].criteria;;;;;;;
;;;;;criteria;;;offer.products[1].services[0].criteria[?(@.criterionGeodataCode=='envelope_formatCode')].criterionValueCode;;;;;;;
;;;;;;criterionGeodataCode;pickup_containerQuantity;offer.products[1].services[0].criteria[?(@.criterionGeodataCode=='preparationLevel')].criterionValueCode;;;;;;;
;;;;;;criterionGeodataCode;pickup_containerRealQuantity;offer.products[1].services[0].criteria[?(@.criterionGeodataCode=='declaredWeight')].criterionValueCode;;;;;;;
;;;;;criteriaGroup;;;offer.products[1].services[0].criteria[?(@.criterionGeodataCode=='declaredWeight')].criterionValueCode;;;;;;;
;products;;;;;;;offer.products[1].services[0].criteria[?(@.criterionGeodataCode=='weightCategory')].criterionValueCode;;;;;;;
;;productCode;;;;;;offer.products[1].services[0].criteria[?(@.criterionGeodataCode=='trackingFlag')].criterionValueCode;;;;;;;
;;services;;;;;;offer.products[1].services[0].criteria[?(@.criterionGeodataCode=='signedFlag')].criterionValueCode;;;;;;;
;;;serviceCode;;;;;offer.products[1].services[0].criteria[?(@.criterionGeodataCode=='itemStatus')].criterionValueCode;;;;;;;
;;;ontology;;;;;offer.products[1].services[0].criteria[?(@.criterionGeodataCode=='itemQuantity')].criterionValueCode;;;;;;;
;;;criteria;;;;;offer.products[1].services[0].criteria.criterionGroup;;;;;;;
;;;;criterionGeodataCode;;;;deposit;;;;;;;
;;;;criterionGeodataCode;;;;deposit.mpSId;;;;;;;
;;;;criterionGeodataCode;;;;deposit.depositId;;;;;;;
;;;;criterionGeodataCode;;;;deposit.depositDateTime;;;;;;;
;;;;criterionGeodataCode;;;;deposit.regateCode;;;;;;;
;;;;criterionGeodataCode;;;;deposit.custAccNumber;;;;;;;
;;;;criterionGeodataCode;;;;deposit.processingDepot;;;;;;;
;;;;criterionGeodataCode;;;;deposit.processingDateTime;;;;;;;
;;;;criterionGroup;;;;deposit.criteria;;;;;;;
deposit;;;;;;;;deposit.criteria[?(@.criterionGeodataCode=='custAccNumber')].criterionValueCode;;;;;;;
;mpSId;;;;;;;offer.products[0].services[0].criteria[?(@.criterionGeodataCode=='depositDescription')].criterionValueCode;;;;;;;
;depositDateTime;;;;;;;item;;;;;;;
;regateCode;;;;;;;item.itemId;;;;;;x;x
;custAccNumber;;;;;;;item.criteria;;;;;;;
;processingDepot;;;;;;;mission;;;;;;;
;processingDateTime;;;;;;;mission.missionID;;;;;;;
;criteria;;;;;;;mission.missionDateTime;;;;;;;
item;;;;;;;;mission.criteria;;;;;;;
;itemId;;;;;;;order;;;;;;;
;criteria;;;;;;;order.orderId;;;;;;;
mission;;;;;;;;order.orderDatetime;;;;;;;
;missionId;;;;;;;order.criteria;;;;;;;
;missionDateTime;;;;;;;order.items;;;;;;;
